<svg width="187" height="192" viewBox="0 0 187 192" fill="none" xmlns="http://www.w3.org/2000/svg">
    <path fill-rule="evenodd" clip-rule="evenodd" d="M94.5 100.713C91.935 150.916 50.703 190.909 0 191.493V0C50.703 0.5845 91.935 40.5767 94.5 90.78C97.031 41.2385 137.217 1.6407 187 0.0438004V191.45C137.217 189.853 97.031 150.255 94.5 100.713Z" fill="#F2C94C"/>
</svg>
